<<<<<<< HEAD
m_EditorVersion: 2017.2.0f3
=======
<<<<<<< HEAD
m_EditorVersion: 2017.2.0f3
=======
m_EditorVersion: 2017.1.1f1
>>>>>>> de5790e77244cf06bb2e8c28df12468d46f8d18e
>>>>>>> 2f8c16d6862ddba94653d1006c34c1ba689657de
